size|eps|nslots|median_val_mpi \[s\]
---:|---:|---:|---:
512|10|1|1.453440
512|10|2|0.748214
512|10|4|0.388913
512|10|8|0.208991
512|10|16|0.235282
512|10|32|0.258813
512|10|64|0.510488
768|100|1|0.070061
768|100|2|0.054059
768|100|4|0.033617
768|100|8|0.039742
768|100|16|0.136857
768|100|32|0.155889
768|100|64|0.207868
1024|100|1|0.216174
1024|100|2|0.146247
1024|100|4|0.106183
1024|100|8|0.063451
1024|100|16|0.150447
1024|100|32|0.165680
1024|100|64|0.221482
